module github.com/MD-Repo/md-repo-app/workflows/docker/events_splits

go 1.20

require (
	github.com/kelseyhightower/envconfig v1.4.0
	github.com/nats-io/nats.go v1.29.0
)

require (
	github.com/golang/protobuf v1.5.3 // indirect
	github.com/klauspost/compress v1.17.0 // indirect
	github.com/nats-io/nats-server/v2 v2.10.0 // indirect
	github.com/nats-io/nkeys v0.4.5 // indirect
	github.com/nats-io/nuid v1.0.1 // indirect
	golang.org/x/crypto v0.13.0 // indirect
	golang.org/x/sys v0.12.0 // indirect
	google.golang.org/protobuf v1.31.0 // indirect
)
